{
    "items": {
        "shop_id": "57301367",
        "page": "3",
        "real_total_results": "466",
        "total_results": "466",
        "page_size": 30,
        "page_count": 16,
        "_ddf": "ti",
        "item": [
            {
                "num_iid": "669459501769",
                "pic_url": "//img.alicdn.com/imgextra/i4/133668489/O1CN01w3Wb5Q2Ca10WkRGby_!!133668489-0-lubanu-s.jpg",
                "title": "HP\u60e0\u666e\u84dd\u7259\u97f3\u7bb1k\u6b4c\u5c0f\u97f3\u54cd\u6237\u5916\u4fbf\u643a\u684c\u9762\u65e0\u7ebf\u7535\u8111\u4f4e\u97f3\u70ae\u5bb6\u7528\u91cd\u4f4e\u97f3",
                "promotion_price": "149.00",
                "price": "68.85",
                "sales": 20757,
                "quantity": "13812",
                "seller_nick": "\u60e0\u666e\u4e2d\u56fd\u5b98\u65b9\u65d7\u8230\u5e97",
                "seller_id": null,
                "shop_id": "57301367",
                "shop_title": "\u60e0\u666e\u4e2d\u56fd\u5b98\u65b9\u65d7\u8230\u5e97",
                "detail_url": "https://item.taobao.com/item.htm?id=669459501769"
            },
            {
                "num_iid": "595861510659",
                "pic_url": "//img.alicdn.com/imgextra/i4/0/O1CN01hyjSpX2Ca0ok4i7cO_!!0-item_pic.jpg",
                "title": "\u3010\u5b98\u65b9\u65d7\u8230\u5e97\u3011HP\u60e0\u666e\u952e\u76d8\u6709\u7ebfusb\u5973\u751f\u53f0\u5f0f\u673a\u5546\u52a1\u529e\u516c\u901a\u7528\u7801\u5b57",
                "promotion_price": "79.00",
                "price": "49.90",
                "sales": 20639,
                "quantity": "3083",
                "seller_nick": "\u60e0\u666e\u4e2d\u56fd\u5b98\u65b9\u65d7\u8230\u5e97",
                "seller_id": null,
                "shop_id": "57301367",
                "shop_title": "\u60e0\u666e\u4e2d\u56fd\u5b98\u65b9\u65d7\u8230\u5e97",
                "detail_url": "https://item.taobao.com/item.htm?id=595861510659"
            },
            {
                "num_iid": "547800985363",
                "pic_url": "//img.alicdn.com/imgextra/i3/0/O1CN015gKw9s2Ca0smY0v0H_!!0-item_pic.jpg",
                "title": "\u3010\u5b98\u65b9\u65d7\u8230\u5e97\u3011HP\u60e0\u666e\u65e0\u7ebf\u9f20\u6807\u5973\u751f\u53ef\u7231\u9759\u97f3\u8f7b\u8584\u7ea2\u8272\u5c0f\u4fbf\u643a\u9f20\u6807",
                "promotion_price": "109.00",
                "price": "79.90",
                "sales": 20349,
                "quantity": "334",
                "seller_nick": "\u60e0\u666e\u4e2d\u56fd\u5b98\u65b9\u65d7\u8230\u5e97",
                "seller_id": null,
                "shop_id": "57301367",
                "shop_title": "\u60e0\u666e\u4e2d\u56fd\u5b98\u65b9\u65d7\u8230\u5e97",
                "detail_url": "https://item.taobao.com/item.htm?id=547800985363"
            },
            {
                "num_iid": "618638575302",
                "pic_url": "//img.alicdn.com/imgextra/i4/133668489/O1CN015eNQD72Ca0werrfFX_!!133668489-0-lubanu-s.jpg",
                "title": "HP/\u60e0\u666eusb3.0\u624b\u673a\u8bfb\u5361\u5668\u4e09\u5408\u4e00sd\u5361tf\u5185\u5b58\u5361\u8f6c\u6362\u5668\u9002\u7528type-c\u8bbe\u5907\u7b14\u8bb0\u672c\u7535\u8111U\u76d8\u8f7b\u8584\u4fbf\u643a\u514d\u9a71\u52a8\u53cc\u5361\u53cc\u8bfb",
                "promotion_price": "79.90",
                "price": "68.90",
                "sales": 20089,
                "quantity": "491",
                "seller_nick": "\u60e0\u666e\u4e2d\u56fd\u5b98\u65b9\u65d7\u8230\u5e97",
                "seller_id": null,
                "shop_id": "57301367",
                "shop_title": "\u60e0\u666e\u4e2d\u56fd\u5b98\u65b9\u65d7\u8230\u5e97",
                "detail_url": "https://item.taobao.com/item.htm?id=618638575302"
            },
            {
                "num_iid": "637657149493",
                "pic_url": "//img.alicdn.com/imgextra/i2/0/O1CN01iWI0oX2Ca0sBassvf_!!0-item_pic.jpg",
                "title": "\u3010\u7535\u7ade\u7ea7\u964d\u566a\u3011hp/\u60e0\u666e\u7b14\u8bb0\u672c\u7535\u8111\u6563\u70ed\u5668\u98ce\u6247\u5e95\u5ea7\u624b\u63d0\u6e38\u620f\u672c\u9759\u97f3\u964d\u6e29\u7535\u8111\u652f\u67b6\u5236\u51b7\u6563\u70ed\u67b6\u9002\u7528\u4e8e\u82f9\u679c\u534e\u4e3a\u8054\u60f3",
                "promotion_price": "199.00",
                "price": "169.00",
                "sales": 19453,
                "quantity": "5439",
                "seller_nick": "\u60e0\u666e\u4e2d\u56fd\u5b98\u65b9\u65d7\u8230\u5e97",
                "seller_id": null,
                "shop_id": "57301367",
                "shop_title": "\u60e0\u666e\u4e2d\u56fd\u5b98\u65b9\u65d7\u8230\u5e97",
                "detail_url": "https://item.taobao.com/item.htm?id=637657149493"
            },
            {
                "num_iid": "627212599733",
                "pic_url": "//img.alicdn.com/imgextra/i3/0/O1CN0189NEiP2Ca0zenKe30_!!0-item_pic.jpg",
                "title": "\u60e0\u666e128g\u624b\u673au\u76d864g\u7535\u8111\u4e24\u7528type-c\u53cc\u63a5\u53e3\u9ad8\u901f3.1\u65d7\u8230\u5e97\u6b63\u54c1\u4f18\u76d8",
                "promotion_price": "205.90",
                "price": "45.90",
                "sales": 19319,
                "quantity": "1024",
                "seller_nick": "\u60e0\u666e\u4e2d\u56fd\u5b98\u65b9\u65d7\u8230\u5e97",
                "seller_id": null,
                "shop_id": "57301367",
                "shop_title": "\u60e0\u666e\u4e2d\u56fd\u5b98\u65b9\u65d7\u8230\u5e97",
                "detail_url": "https://item.taobao.com/item.htm?id=627212599733"
            },
            {
                "num_iid": "557948619164",
                "pic_url": "//img.alicdn.com/imgextra/i4/0/O1CN01Z5Nwo82Ca0zh3fZgc_!!0-item_pic.jpg",
                "title": "\u60e0\u666e250G/500G/1tb\u56fa\u6001\u786c\u76d8SATA3\u63a5\u53e32.5\u5bf8\u7b14\u8bb0\u672c\u7535\u8111\u53f0\u5f0f\u673a\u786c\u76d8",
                "promotion_price": "334.00",
                "price": "179.00",
                "sales": 18890,
                "quantity": "968",
                "seller_nick": "\u60e0\u666e\u4e2d\u56fd\u5b98\u65b9\u65d7\u8230\u5e97",
                "seller_id": null,
                "shop_id": "57301367",
                "shop_title": "\u60e0\u666e\u4e2d\u56fd\u5b98\u65b9\u65d7\u8230\u5e97",
                "detail_url": "https://item.taobao.com/item.htm?id=557948619164"
            },
            {
                "num_iid": "603188583184",
                "pic_url": "//img.alicdn.com/imgextra/i4/0/O1CN011F1JB02Ca0zl5lHcK_!!0-item_pic.jpg",
                "title": "\u60e0\u666eddr4 2666/3200 8G/16G/32G\u5957\u88c5\u7b14\u8bb0\u672c\u5185\u5b58\u6761\u517c\u7535\u8111\u6e38\u620f\u8fd0\u884c",
                "promotion_price": "579.00",
                "price": "209.00",
                "sales": 17466,
                "quantity": "1000",
                "seller_nick": "\u60e0\u666e\u4e2d\u56fd\u5b98\u65b9\u65d7\u8230\u5e97",
                "seller_id": null,
                "shop_id": "57301367",
                "shop_title": "\u60e0\u666e\u4e2d\u56fd\u5b98\u65b9\u65d7\u8230\u5e97",
                "detail_url": "https://item.taobao.com/item.htm?id=603188583184"
            },
            {
                "num_iid": "661187452272",
                "pic_url": "//img.alicdn.com/imgextra/i2/0/O1CN01LL1LTC2Ca0xSAp1Do_!!0-item_pic.jpg",
                "title": "\u60e0\u666e64g\u5185\u5b58\u536132g\u884c\u8f66\u8bb0\u5f55\u4eea\u5b58\u50a8\u5361128g\u9ad8\u901ftf\u5361\u624b\u673a\u76f8\u673a\u76d1\u63a7sd\u5361",
                "promotion_price": "64.90",
                "price": "28.90",
                "sales": 17231,
                "quantity": "4437",
                "seller_nick": "\u60e0\u666e\u4e2d\u56fd\u5b98\u65b9\u65d7\u8230\u5e97",
                "seller_id": null,
                "shop_id": "57301367",
                "shop_title": "\u60e0\u666e\u4e2d\u56fd\u5b98\u65b9\u65d7\u8230\u5e97",
                "detail_url": "https://item.taobao.com/item.htm?id=661187452272"
            },
            {
                "num_iid": "629548555316",
                "pic_url": "//img.alicdn.com/imgextra/i4/0/O1CN01g8UWvH2Ca10fpJhRt_!!0-item_pic.jpg",
                "title": "\u3010\u91d1\u5c5e\u8f7b\u8584\u672c\u3011HP\u60e0\u666e\u661f14pro \u53ef\u900912\u4ee3\u82f1\u7279\u5c14\u9177\u777fi5\u7b14\u8bb0\u672c\u7535\u81112.2k\u5c4f\u5b66\u751f\u8f7b\u8584\u529e\u516c\u7535\u8111\u7b14\u8bb0\u672c\u60e0\u666e\u5b98\u65b9\u65d7\u8230\u5e97",
                "promotion_price": "5899.00",
                "price": "5599.00",
                "sales": 17172,
                "quantity": "10185",
                "seller_nick": "\u60e0\u666e\u4e2d\u56fd\u5b98\u65b9\u65d7\u8230\u5e97",
                "seller_id": null,
                "shop_id": "57301367",
                "shop_title": "\u60e0\u666e\u4e2d\u56fd\u5b98\u65b9\u65d7\u8230\u5e97",
                "detail_url": "https://item.taobao.com/item.htm?id=629548555316"
            },
            {
                "num_iid": "656930443212",
                "pic_url": "//img.alicdn.com/imgextra/i4/0/O1CN01pekafa2Ca0xCem3Rt_!!0-item_pic.jpg",
                "title": "hp\u60e0\u666e\u65e0\u7ebf\u84dd\u7259\u952e\u76d8\u529e\u516c\u9002\u7528\u82f9\u679cipad\u5e73\u677f\u7b14\u8bb0\u672c\u7535\u8111\u53ef\u7231\u5973\u751f\u9759\u97f3",
                "promotion_price": "299.00",
                "price": "109.00",
                "sales": 16717,
                "quantity": "13154",
                "seller_nick": "\u60e0\u666e\u4e2d\u56fd\u5b98\u65b9\u65d7\u8230\u5e97",
                "seller_id": null,
                "shop_id": "57301367",
                "shop_title": "\u60e0\u666e\u4e2d\u56fd\u5b98\u65b9\u65d7\u8230\u5e97",
                "detail_url": "https://item.taobao.com/item.htm?id=656930443212"
            },
            {
                "num_iid": "630049085199",
                "pic_url": "//img.alicdn.com/imgextra/i4/0/O1CN01IzhssS2Ca0psJMGJv_!!0-item_pic.jpg",
                "title": "\u60e0\u666e\u5f69\u8679\u952e\u76d8\u9f20\u6807\u5957\u88c5\u673a\u68b0\u624b\u611f\u6709\u7ebf\u7b14\u8bb0\u672c\u7535\u8111\u5706\u952e\u53ef\u7231\u5973\u751f\u529e\u516c",
                "promotion_price": "99.00",
                "price": "69.90",
                "sales": 16552,
                "quantity": "15967",
                "seller_nick": "\u60e0\u666e\u4e2d\u56fd\u5b98\u65b9\u65d7\u8230\u5e97",
                "seller_id": null,
                "shop_id": "57301367",
                "shop_title": "\u60e0\u666e\u4e2d\u56fd\u5b98\u65b9\u65d7\u8230\u5e97",
                "detail_url": "https://item.taobao.com/item.htm?id=630049085199"
            },
            {
                "num_iid": "671849724377",
                "pic_url": "//img.alicdn.com/imgextra/i2/133668489/O1CN01v2v19Y2Ca0x7FZFJL_!!133668489-0-lubanu-s.jpg",
                "title": "HP/\u60e0\u666e\u5934\u6234\u5f0f\u7535\u8111\u8033\u673a\u8033\u9ea6\u5e26\u9ea6\u9ea6\u514b\u98ce\u4e8c\u5408\u4e00\u6e38\u620f\u97f3\u4e50\u76f4\u64ad\u7f51\u8bfe",
                "promotion_price": "139.00",
                "price": "59.90",
                "sales": 16188,
                "quantity": "8089",
                "seller_nick": "\u60e0\u666e\u4e2d\u56fd\u5b98\u65b9\u65d7\u8230\u5e97",
                "seller_id": null,
                "shop_id": "57301367",
                "shop_title": "\u60e0\u666e\u4e2d\u56fd\u5b98\u65b9\u65d7\u8230\u5e97",
                "detail_url": "https://item.taobao.com/item.htm?id=671849724377"
            },
            {
                "num_iid": "642522064104",
                "pic_url": "//img.alicdn.com/imgextra/i4/0/O1CN01gzw58F2Ca10ho8cx1_!!0-item_pic.jpg",
                "title": "\u3010\u7535\u7ade\u6e38\u620f\u672c\u3011HP\u60e0\u666e\u5149\u5f71\u7cbe\u70758\u53ef\u900912\u4ee3\u82f1\u7279\u5c14\u9177\u777fi5/i7 RTX3060\u7b14\u8bb0\u672c\u7535\u8111\u6e38\u620f\u672c\u6697\u5f71\u7cbe\u7075\u60e0\u666e\u5b98\u65b9\u65d7\u8230\u5e97",
                "promotion_price": "6799.00",
                "price": "6499.00",
                "sales": 16000,
                "quantity": "4415",
                "seller_nick": "\u60e0\u666e\u4e2d\u56fd\u5b98\u65b9\u65d7\u8230\u5e97",
                "seller_id": null,
                "shop_id": "57301367",
                "shop_title": "\u60e0\u666e\u4e2d\u56fd\u5b98\u65b9\u65d7\u8230\u5e97",
                "detail_url": "https://item.taobao.com/item.htm?id=642522064104"
            },
            {
                "num_iid": "665742664791",
                "pic_url": "//img.alicdn.com/imgextra/i1/0/O1CN01qTYdsJ2Ca0x7yKjoL_!!0-item_pic.jpg",
                "title": "hp\u60e0\u666e\u65e0\u7ebf\u9f20\u6807\u84dd\u7259\u9759\u97f3\u7b14\u8bb0\u672c\u7535\u8111\u529e\u516c\u5973\u751f\u53ef\u7231\u9002\u7528ipad\u5e73\u677fmac",
                "promotion_price": "129.00",
                "price": "79.90",
                "sales": 15677,
                "quantity": "31072",
                "seller_nick": "\u60e0\u666e\u4e2d\u56fd\u5b98\u65b9\u65d7\u8230\u5e97",
                "seller_id": null,
                "shop_id": "57301367",
                "shop_title": "\u60e0\u666e\u4e2d\u56fd\u5b98\u65b9\u65d7\u8230\u5e97",
                "detail_url": "https://item.taobao.com/item.htm?id=665742664791"
            },
            {
                "num_iid": "652357790788",
                "pic_url": "//img.alicdn.com/imgextra/i2/0/O1CN011fzCW12Ca0uryD0C1_!!0-item_pic.jpg",
                "title": "\u60e0\u666e\u673a\u68b0\u624b\u611f\u6709\u7ebf\u952e\u76d8\u53f0\u5f0f\u7535\u8111\u7b14\u8bb0\u672c\u529e\u516c\u6e38\u620f\u952e\u76d8\u9f20\u6807\u8033\u673a\u4e09\u4ef6\u5957",
                "promotion_price": "89.00",
                "price": "59.90",
                "sales": 15331,
                "quantity": "31157",
                "seller_nick": "\u60e0\u666e\u4e2d\u56fd\u5b98\u65b9\u65d7\u8230\u5e97",
                "seller_id": null,
                "shop_id": "57301367",
                "shop_title": "\u60e0\u666e\u4e2d\u56fd\u5b98\u65b9\u65d7\u8230\u5e97",
                "detail_url": "https://item.taobao.com/item.htm?id=652357790788"
            },
            {
                "num_iid": "581223256062",
                "pic_url": "//img.alicdn.com/imgextra/i1/2/O1CN016N56yT2Ca10cce4Z9_!!2-item_pic.png",
                "title": "\u3010\u987a\u4e30\u5305\u90ae\u3011HP/\u60e0\u666e\u53ef\u900912\u4ee3\u9177\u777fi3/i5\u8ff7\u4f60\u4e3b\u673a\u7f51\u8bfe\u5546\u7528\u529e\u516c\u5bb6\u7528\u53f0\u5f0f\u673a\u7535\u8111\u5168\u5957mini\u4e3b\u673a\u54c1\u724c\u6574\u673a\u60e0\u666e\u65d7\u8230\u5e97",
                "promotion_price": "2599.00",
                "price": "2099.00",
                "sales": 15279,
                "quantity": "1211",
                "seller_nick": "\u60e0\u666e\u4e2d\u56fd\u5b98\u65b9\u65d7\u8230\u5e97",
                "seller_id": null,
                "shop_id": "57301367",
                "shop_title": "\u60e0\u666e\u4e2d\u56fd\u5b98\u65b9\u65d7\u8230\u5e97",
                "detail_url": "https://item.taobao.com/item.htm?id=581223256062"
            },
            {
                "num_iid": "641494740226",
                "pic_url": "//img.alicdn.com/imgextra/i4/0/O1CN01Ef6eFQ2Ca0wV4HdI5_!!0-item_pic.jpg",
                "title": "\u3010\u6652\u56fe\u9001\u684c\u57ab\u3011hp\u60e0\u666e\u7b14\u8bb0\u672c\u6563\u70ed\u5668\u5e95\u5ea7\u6e38\u620f\u672c\u624b\u63d0\u5e73\u677f\u7535\u811114\u5bf815.6\u7b14\u8bb0\u672c\u6392\u98ce\u6247\u9759\u97f3\u964d\u6e29\u652f\u67b6\u6563\u70ed\u67b6\u6563\u70ed\u677f",
                "promotion_price": "199.00",
                "price": "99.90",
                "sales": 14823,
                "quantity": "14716",
                "seller_nick": "\u60e0\u666e\u4e2d\u56fd\u5b98\u65b9\u65d7\u8230\u5e97",
                "seller_id": null,
                "shop_id": "57301367",
                "shop_title": "\u60e0\u666e\u4e2d\u56fd\u5b98\u65b9\u65d7\u8230\u5e97",
                "detail_url": "https://item.taobao.com/item.htm?id=641494740226"
            },
            {
                "num_iid": "667611333840",
                "pic_url": "//img.alicdn.com/imgextra/i3/0/O1CN01QGjCgY2Ca10atNX4w_!!0-item_pic.jpg",
                "title": "\u3010\u7206\u6b3e\u63a8\u8350\u3011HP\u60e0\u666e\u5149\u5f71\u7cbe\u70758\u53ef\u900912\u4ee3\u82f1\u7279\u5c14\u9177\u777fi5/i7RTX3060\u6e38\u620f\u672c\u6697\u5f71\u7cbe\u70758\u5b66\u751f\u7b14\u8bb0\u672c\u7535\u8111\u60e0\u666e\u5b98\u65b9\u65d7\u8230\u5e97",
                "promotion_price": "7299.00",
                "price": "6999.00",
                "sales": 14762,
                "quantity": "4123",
                "seller_nick": "\u60e0\u666e\u4e2d\u56fd\u5b98\u65b9\u65d7\u8230\u5e97",
                "seller_id": null,
                "shop_id": "57301367",
                "shop_title": "\u60e0\u666e\u4e2d\u56fd\u5b98\u65b9\u65d7\u8230\u5e97",
                "detail_url": "https://item.taobao.com/item.htm?id=667611333840"
            },
            {
                "num_iid": "684166657033",
                "pic_url": "//img.alicdn.com/imgextra/i1/0/O1CN01H5R8lR2Ca10XwPZDm_!!0-item_pic.jpg",
                "title": "HP\u60e0\u666e\u84dd\u7259\u8033\u673a\u534a\u5165\u8033\u5f0f\u65e0\u7ebf\u8033\u673a\u9002\u7528\u4e8e\u82f9\u679c\u534e\u4e3a\u5c0f\u7c73\u84dd\u7259\u964d\u566a\u8033\u673a",
                "promotion_price": "159.00",
                "price": "80.34",
                "sales": 14614,
                "quantity": "39362",
                "seller_nick": "\u60e0\u666e\u4e2d\u56fd\u5b98\u65b9\u65d7\u8230\u5e97",
                "seller_id": null,
                "shop_id": "57301367",
                "shop_title": "\u60e0\u666e\u4e2d\u56fd\u5b98\u65b9\u65d7\u8230\u5e97",
                "detail_url": "https://item.taobao.com/item.htm?id=684166657033"
            },
            {
                "num_iid": "630902936529",
                "pic_url": "//img.alicdn.com/imgextra/i4/0/O1CN015kgt5M2Ca0r6xC5cX_!!0-item_pic.jpg",
                "title": "\u3010MFI\u8ba4\u8bc1\u3011\u60e0\u666e\u82f9\u679cx\u6570\u636e\u7ebfiphone\u624b\u673a\u5145\u7535\u7ebfipad\u5feb\u51457\u95ea\u5145mfi\u8ba4\u8bc1pd\u9002\u752811\u624b\u673a12\u5e73\u677fipadpro\u52a0\u957f2\u7c73\u9632\u6298\u65ad",
                "promotion_price": "59.00",
                "price": "39.90",
                "sales": 13865,
                "quantity": "5125",
                "seller_nick": "\u60e0\u666e\u4e2d\u56fd\u5b98\u65b9\u65d7\u8230\u5e97",
                "seller_id": null,
                "shop_id": "57301367",
                "shop_title": "\u60e0\u666e\u4e2d\u56fd\u5b98\u65b9\u65d7\u8230\u5e97",
                "detail_url": "https://item.taobao.com/item.htm?id=630902936529"
            },
            {
                "num_iid": "673520226200",
                "pic_url": "//img.alicdn.com/imgextra/i1/133668489/O1CN01hjMmbd2Ca0zMfZ0Vd_!!133668489-0-lubanu-s.jpg",
                "title": "HP/\u60e0\u666e\u7535\u8111\u97f3\u54cd\u53f0\u5f0f\u5bb6\u7528\u97f3\u7bb1\u8d85\u91cd\u4f4e\u97f3\u70ae\u5c0f\u578b\u8ff7\u4f60\u7535\u7ade\u6e38\u620f\u626c\u58f0\u5668",
                "promotion_price": "149.00",
                "price": "45.86",
                "sales": 13782,
                "quantity": "19748",
                "seller_nick": "\u60e0\u666e\u4e2d\u56fd\u5b98\u65b9\u65d7\u8230\u5e97",
                "seller_id": null,
                "shop_id": "57301367",
                "shop_title": "\u60e0\u666e\u4e2d\u56fd\u5b98\u65b9\u65d7\u8230\u5e97",
                "detail_url": "https://item.taobao.com/item.htm?id=673520226200"
            },
            {
                "num_iid": "634879139962",
                "pic_url": "//img.alicdn.com/imgextra/i1/0/O1CN01efAQCw2Ca0zxqTQHy_!!0-item_pic.jpg",
                "title": "HP\u60e0\u666e\u673a\u68b0\u952e\u76d8\u9f20\u6807\u5957\u88c5\u7535\u7ade\u6e38\u620f\u4e13\u7528\u6709\u7ebf\u7535\u8111\u5916\u8bbe\u952e\u9f20\u8033\u673a\u4e09\u4ef6\u5957",
                "promotion_price": "259.00",
                "price": "169.00",
                "sales": 13109,
                "quantity": "56981",
                "seller_nick": "\u60e0\u666e\u4e2d\u56fd\u5b98\u65b9\u65d7\u8230\u5e97",
                "seller_id": null,
                "shop_id": "57301367",
                "shop_title": "\u60e0\u666e\u4e2d\u56fd\u5b98\u65b9\u65d7\u8230\u5e97",
                "detail_url": "https://item.taobao.com/item.htm?id=634879139962"
            },
            {
                "num_iid": "673450426635",
                "pic_url": "//img.alicdn.com/imgextra/i3/0/O1CN01nmvSZZ2Ca10mHXKc9_!!0-item_pic.jpg",
                "title": "\u3010\u7206\u6b3e\u91d1\u5c5e\u672c\u3011HP\u60e0\u666e\u661f14 Pro\u53ef\u900912\u4ee3\u82f1\u7279\u5c14\u9177\u777fi5 2.8k\u5c4f\u7b14\u8bb0\u672c\u7535\u8111\u8f7b\u8584\u4fbf\u643a\u5b66\u751f\u529e\u516c\u672c\u60e0\u666e\u5b98\u65b9\u65d7\u8230\u5e97",
                "promotion_price": "6099.00",
                "price": "5699.00",
                "sales": 13023,
                "quantity": "9748",
                "seller_nick": "\u60e0\u666e\u4e2d\u56fd\u5b98\u65b9\u65d7\u8230\u5e97",
                "seller_id": null,
                "shop_id": "57301367",
                "shop_title": "\u60e0\u666e\u4e2d\u56fd\u5b98\u65b9\u65d7\u8230\u5e97",
                "detail_url": "https://item.taobao.com/item.htm?id=673450426635"
            },
            {
                "num_iid": "618432164529",
                "pic_url": "//img.alicdn.com/imgextra/i4/0/O1CN01blrQsd2Ca10Bfdqtv_!!0-item_pic.jpg",
                "title": "\u3010\u6652\u56fe\u9001\u57ab\u3011\u60e0\u666e\u952e\u9f20\u5957\u88c5\u673a\u68b0\u6709\u7ebf\u529e\u516c\u6e38\u620f\u8033\u673a\u7f51\u7ea2\u952e\u76d8\u9f20\u6807\u5957\u88c5",
                "promotion_price": "129.00",
                "price": "89.90",
                "sales": 12997,
                "quantity": "24122",
                "seller_nick": "\u60e0\u666e\u4e2d\u56fd\u5b98\u65b9\u65d7\u8230\u5e97",
                "seller_id": null,
                "shop_id": "57301367",
                "shop_title": "\u60e0\u666e\u4e2d\u56fd\u5b98\u65b9\u65d7\u8230\u5e97",
                "detail_url": "https://item.taobao.com/item.htm?id=618432164529"
            },
            {
                "num_iid": "662821339451",
                "pic_url": "//img.alicdn.com/imgextra/i4/133668489/O1CN01UswihL2Ca0zQbmVRO_!!133668489-0-lubanu-s.jpg",
                "title": "HP/\u60e0\u666e\u6709\u7ebf\u8033\u673a\u5165\u8033\u5f0f\u6e38\u620f\u7535\u7ade\u8033\u585e\u8033\u9ea6\u5e26\u9ea6\u9002\u7528\u82f9\u679c\u534e\u4e3a\u624b\u673a",
                "promotion_price": "73.90",
                "price": "33.90",
                "sales": 12477,
                "quantity": "4990",
                "seller_nick": "\u60e0\u666e\u4e2d\u56fd\u5b98\u65b9\u65d7\u8230\u5e97",
                "seller_id": null,
                "shop_id": "57301367",
                "shop_title": "\u60e0\u666e\u4e2d\u56fd\u5b98\u65b9\u65d7\u8230\u5e97",
                "detail_url": "https://item.taobao.com/item.htm?id=662821339451"
            },
            {
                "num_iid": "675620938898",
                "pic_url": "//img.alicdn.com/imgextra/i1/2/O1CN01eimIon2Ca0yipVEXt_!!2-item_pic.png",
                "title": "HP\u60e0\u666e\u97f3\u9891AUX\u8fde\u63a5\u7ebf\u97f3\u54cd\u8f66\u7528\u8f66\u8f7d3.5mm\u516c\u5bf9\u516c\u53cc\u5934\u63d2\u624b\u673a\u7535\u8111\u8033\u673a",
                "promotion_price": "25.90",
                "price": "15.90",
                "sales": 12383,
                "quantity": "15856",
                "seller_nick": "\u60e0\u666e\u4e2d\u56fd\u5b98\u65b9\u65d7\u8230\u5e97",
                "seller_id": null,
                "shop_id": "57301367",
                "shop_title": "\u60e0\u666e\u4e2d\u56fd\u5b98\u65b9\u65d7\u8230\u5e97",
                "detail_url": "https://item.taobao.com/item.htm?id=675620938898"
            },
            {
                "num_iid": "618880351008",
                "pic_url": "//img.alicdn.com/imgextra/i1/133668489/O1CN01LumkYi2Ca0yeqdC61_!!133668489-0-lubanu-s.jpg",
                "title": "HP/\u60e0\u666e\u5934\u6234\u5f0f\u8033\u673a\u7535\u7ade\u6e38\u620f\u53f0\u5f0f\u7535\u8111\u7b14\u8bb0\u672c\u7528\u76f4\u64ad\u732b\u8033\u6735\u6709\u7ebf\u8033\u9ea6",
                "promotion_price": "149.00",
                "price": "59.90",
                "sales": 12140,
                "quantity": "28211",
                "seller_nick": "\u60e0\u666e\u4e2d\u56fd\u5b98\u65b9\u65d7\u8230\u5e97",
                "seller_id": null,
                "shop_id": "57301367",
                "shop_title": "\u60e0\u666e\u4e2d\u56fd\u5b98\u65b9\u65d7\u8230\u5e97",
                "detail_url": "https://item.taobao.com/item.htm?id=618880351008"
            },
            {
                "num_iid": "583960041413",
                "pic_url": "//img.alicdn.com/imgextra/i1/0/O1CN01yfVOQ62Ca0oJc2PW4_!!0-item_pic.jpg",
                "title": "HP\u60e0\u666e\u529e\u516c\u9f20\u6807\u6709\u7ebfusb\u7537\u5973\u751f\u7b14\u8bb0\u672c\u7535\u8111\u5bb6\u7528\u7535\u7ade\u6e38\u620f\u539f\u88c5\u5c0f\u5546\u52a1",
                "promotion_price": "49.00",
                "price": "39.90",
                "sales": 12094,
                "quantity": "38464",
                "seller_nick": "\u60e0\u666e\u4e2d\u56fd\u5b98\u65b9\u65d7\u8230\u5e97",
                "seller_id": null,
                "shop_id": "57301367",
                "shop_title": "\u60e0\u666e\u4e2d\u56fd\u5b98\u65b9\u65d7\u8230\u5e97",
                "detail_url": "https://item.taobao.com/item.htm?id=583960041413"
            },
            {
                "num_iid": "618345187465",
                "pic_url": "//img.alicdn.com/imgextra/i4/0/O1CN01SyB9Wm2Ca0rrj33qD_!!0-item_pic.jpg",
                "title": "\u60e0\u666eusb\u6269\u5c55\u5668Typec\u6269\u5c55\u575e\u7b14\u8bb0\u672cHDMI\u591a\u63a5\u53e3\u9002\u7528iPad\u624b\u673a\u82f9\u679cMacBook\u7b14\u8bb0\u672c\u7535\u8111\u8f6c\u6362\u5668hub\u96c6\u7ebf\u8f6c\u63a5\u5934\u5206\u7ebf\u5668",
                "promotion_price": "199.00",
                "price": "69.90",
                "sales": 11865,
                "quantity": "3506",
                "seller_nick": "\u60e0\u666e\u4e2d\u56fd\u5b98\u65b9\u65d7\u8230\u5e97",
                "seller_id": null,
                "shop_id": "57301367",
                "shop_title": "\u60e0\u666e\u4e2d\u56fd\u5b98\u65b9\u65d7\u8230\u5e97",
                "detail_url": "https://item.taobao.com/item.htm?id=618345187465"
            }
        ]
    },
    "error_code": "0000",
    "reason": "ok",
    "secache": "eff1735e99f3fc5d05a800db6e2d6ad9",
    "secache_time": 1674002790,
    "secache_date": "2023-01-18 08:46:30",
    "translate_status": "",
    "translate_time": 0,
    "language": {
        "default_lang": "cn",
        "current_lang": "cn"
    },
    "error": "",
    "cache": 1,
    "api_info": "today: max:20000 all[=++];expires:2024-01-16",
    "execution_time": "0.065",
    "server_time": "Beijing/2023-01-21 03:05:30",
    "client_ip": "54.39.83.153",
    "call_args": {
        "seller_nick": "57301367",
        "start_price": "3"
    },
    "api_type": "taobao",
    "translate_language": "zh-CN",
    "translate_engine": "baidu",
    "server_memory": "5.82MB",
    "last_id": false
}